{"total":1067,"page":1,"pageSize":2,"pages":534,"items":[{"id":"69c7b578799bf030486e2bd4","skuid":1,"skuName":"BGSNL-1000","readyId":1001,"metalCode":"SS","itemName":"NECKLACE","itemGroupName":null,"styleName":"Silver Jewellery","colorName":"-","sGroupName":"-","subGroupName":"-","size":"-","grossWt":41.85,"weight":28.24,"fineWt":14.12,"diaWt":5.42,"csWt":62.62,"diaPcs":0,"csPcs":0,"stockQty":1,"picture1":"BGSNL-1000.jpg","image_url":"https://bgjewels.jewelscore.com/f/shortimage/BGSNL-1000.jpg","skuImage1":"BGSNL-1000_1.jpg","skuImage2":"BGSNL-1000_2.jpg","currencySymbol":"Rs","showCatalogPrice":246750.0,"pricePerPcs":913.8888888888889,"tagPrice":2741.6666666666665,"stoneAmt":0.0,"metalAmt":0.0,"labour":0.0,"hidePrice":true,"priceType":null,"refDNo":"","length":"","height":"","width":"","itemDesc":"","description":"This piece is a necklace featuring a striking design with a silver-toned metal. It showcases large, blue gems that appear to be the focal point, possibly imitating sapphires or aquamarines, surrounded by intricate settings of smaller clear stones resembling diamonds. The overall design is modern with a geometric flair, emphasizing symmetry and bold color contrast. The necklace is elegant and likely designed for formal occasions.","otherCode":"","stones":[]},{"id":"69c7b578799bf030486e2bd5","skuid":2,"skuName":"BGSNL-1001","readyId":1002,"metalCode":"SS","itemName":"NECKLACE","itemGroupName":null,"styleName":"Silver Jewellery","colorName":"-","sGroupName":"-","subGroupName":"-","size":"-","grossWt":29.99,"weight":25.48,"fineWt":12.74,"diaWt":4.3,"csWt":18.25,"diaPcs":0,"csPcs":0,"stockQty":1,"picture1":"BGSNL-1001.jpg","image_url":"https://bgjewels.jewelscore.com/f/shortimage/BGSNL-1001.jpg","skuImage1":"BGSNL-1001_1.jpg","skuImage2":"BGSNL-1001_2.jpg","currencySymbol":"Rs","showCatalogPrice":192900.0,"pricePerPcs":714.4444444444445,"tagPrice":2143.3333333333335,"stoneAmt":0.0,"metalAmt":0.0,"labour":0.0,"hidePrice":true,"priceType":null,"refDNo":"","length":"","height":"","width":"","itemDesc":"","description":"This is a necklace featuring a silver-toned metal chain composed of intricate links. It showcases a prominent central pendant with a large, rectangular gemstone in a deep amber hue, possibly amber or citrine. The design style blends traditional elegance with a modern touch, embodied by the simple yet sophisticated chain and pendant combination. The overall aesthetic is both eye-catching and refined, suitable for various occasions.","otherCode":"","stones":[]}]}